{
  "error": "",
  "result": {
    "games": [
      {
        "bet_amount": "10.00",
        "bet_time": "2019-06-02T12:15:43+08:00",
        "contents": "{\"OrderNo\":\"190602041543515673990\",\"PlatformAccountId\":\"26450\",\"RuleType\":\"\",\"Odds\":9750,\"round_no\":\"20190602148\",\"BetAmount\":\"1000\",\"BetTime\":\"2019-06-02 04:15:43\",\"EndTime\":\"2019-06-02 04:20:03\",\"WinLose\":0,\"PayoutAmount\":\"0\",\"MRate\":2.5,\"SRate\":0,\"Numbers\":[\"2\",\"7\",\"10\",\"3\",\"1\",\"8\",\"5\",\"6\",\"9\",\"4\"],\"Cmd\":\"定位胆\",\"PlayValue\":\"03 05 07 09 10,,,,,,,,,\",\"LottoName\":\"极速PK10\",\"PlayType\":\"dingwei\",\"round_id\":\"1945441\"}",
        "game_name": "极速PK10",
        "game_pid": "4",
        "game_sn": "190602041543515673990",
        "id": "12334124",
        "odds": "9.750",
        "payout_amount": "0.00",
        "result_amount": "-10.00",
        "round_no": "20190602148(1945441)",
        "rule_type": "定位胆",
        "settle_time": "2019-06-02T12:20:03+08:00",
        "user_id": "26450",
        "valid": "1"
      },
      {
        "bet_amount": "10.00",
        "bet_time": "2019-05-30T22:30:59+08:00",
        "contents": "{\"OrderNo\":\"190530143059497751693\",\"PlatformAccountId\":\"26450\",\"RuleType\":\"\",\"Odds\":9750,\"round_no\":\"20190530114\",\"BetAmount\":\"1000\",\"BetTime\":\"2019-05-30 14:30:59\",\"EndTime\":\"2019-05-30 14:34:27\",\"WinLose\":1,\"PayoutAmount\":\"1950\",\"MRate\":2.5,\"SRate\":0,\"Numbers\":[\"10\",\"06\",\"04\",\"02\",\"08\",\"01\",\"07\",\"03\",\"05\",\"09\"],\"Cmd\":\"定位胆\",\"PlayValue\":\"02 03 05 09 10,,,,,,,,,\",\"LottoName\":\"马耳他幸运飞艇\",\"PlayType\":\"dingwei\",\"round_id\":\"1920501\"}",
        "game_name": "马耳他幸运飞艇",
        "game_pid": "4",
        "game_sn": "190530143059497751693",
        "id": "11891398",
        "odds": "9.750",
        "payout_amount": "19.50",
        "result_amount": "9.50",
        "round_no": "20190530114(1920501)",
        "rule_type": "定位胆",
        "settle_time": "2019-05-30T22:34:27+08:00",
        "user_id": "26450",
        "valid": "1"
      },
      {
        "bet_amount": "10.00",
        "bet_time": "2019-05-30T22:25:51+08:00",
        "contents": "{\"OrderNo\":\"190530142551497697598\",\"PlatformAccountId\":\"26450\",\"RuleType\":\"\",\"Odds\":9750,\"round_no\":\"20190530113\",\"BetAmount\":\"1000\",\"BetTime\":\"2019-05-30 14:25:51\",\"EndTime\":\"2019-05-30 14:29:29\",\"WinLose\":1,\"PayoutAmount\":\"1950\",\"MRate\":2.5,\"SRate\":0,\"Numbers\":[\"06\",\"01\",\"05\",\"09\",\"07\",\"03\",\"04\",\"02\",\"08\",\"10\"],\"Cmd\":\"定位胆\",\"PlayValue\":\"02 03 05 06 09,,,,,,,,,\",\"LottoName\":\"马耳他幸运飞艇\",\"PlayType\":\"dingwei\",\"round_id\":\"1920462\"}",
        "game_name": "马耳他幸运飞艇",
        "game_pid": "4",
        "game_sn": "190530142551497697598",
        "id": "11890835",
        "odds": "9.750",
        "payout_amount": "19.50",
        "result_amount": "9.50",
        "round_no": "20190530113(1920462)",
        "rule_type": "定位胆",
        "settle_time": "2019-05-30T22:29:29+08:00",
        "user_id": "26450",
        "valid": "1"
      },
      {
        "bet_amount": "1200.00",
        "bet_time": "2019-05-30T22:10:24+08:00",
        "contents": "{\"OrderNo\":\"190530141024497501882\",\"PlatformAccountId\":\"26450\",\"RuleType\":\"\",\"Odds\":9750,\"round_no\":\"20190530110\",\"BetAmount\":\"120000\",\"BetTime\":\"2019-05-30 14:10:24\",\"EndTime\":\"2019-05-30 14:14:28\",\"WinLose\":1,\"PayoutAmount\":\"234000\",\"MRate\":2.5,\"SRate\":0,\"Numbers\":[\"09\",\"03\",\"08\",\"01\",\"10\",\"05\",\"06\",\"04\",\"02\",\"07\"],\"Cmd\":\"定位胆\",\"PlayValue\":\"05 06 07 09 10,,,,,,,,,\",\"LottoName\":\"马耳他幸运飞艇\",\"PlayType\":\"dingwei\",\"round_id\":\"1920363\"}",
        "game_name": "马耳他幸运飞艇",
        "game_pid": "4",
        "game_sn": "190530141024497501882",
        "id": "11887610",
        "odds": "9.750",
        "payout_amount": "2340.00",
        "result_amount": "1140.00",
        "round_no": "20190530110(1920363)",
        "rule_type": "定位胆",
        "settle_time": "2019-05-30T22:14:28+08:00",
        "user_id": "26450",
        "valid": "1"
      },
      {
        "bet_amount": "1200.00",
        "bet_time": "2019-05-30T22:00:57+08:00",
        "contents": "{\"OrderNo\":\"190530140057497389923\",\"PlatformAccountId\":\"26450\",\"RuleType\":\"\",\"Odds\":9750,\"round_no\":\"20190530108\",\"BetAmount\":\"120000\",\"BetTime\":\"2019-05-30 14:00:57\",\"EndTime\":\"2019-05-30 14:04:24\",\"WinLose\":0,\"PayoutAmount\":\"0\",\"MRate\":2.5,\"SRate\":0,\"Numbers\":[\"09\",\"07\",\"02\",\"06\",\"04\",\"01\",\"03\",\"10\",\"05\",\"08\"],\"Cmd\":\"定位胆\",\"PlayValue\":\"01 04 06 07 08,,,,,,,,,\",\"LottoName\":\"马耳他幸运飞艇\",\"PlayType\":\"dingwei\",\"round_id\":\"1920292\"}",
        "game_name": "马耳他幸运飞艇",
        "game_pid": "4",
        "game_sn": "190530140057497389923",
        "id": "11886561",
        "odds": "9.750",
        "payout_amount": "0.00",
        "result_amount": "-1200.00",
        "round_no": "20190530108(1920292)",
        "rule_type": "定位胆",
        "settle_time": "2019-05-30T22:04:24+08:00",
        "user_id": "26450",
        "valid": "1"
      },
      {
        "bet_amount": "1200.00",
        "bet_time": "2019-05-30T21:56:16+08:00",
        "contents": "{\"OrderNo\":\"190530135616497333131\",\"PlatformAccountId\":\"26450\",\"RuleType\":\"\",\"Odds\":9750,\"round_no\":\"20190530107\",\"BetAmount\":\"120000\",\"BetTime\":\"2019-05-30 13:56:16\",\"EndTime\":\"2019-05-30 13:59:28\",\"WinLose\":1,\"PayoutAmount\":\"234000\",\"MRate\":2.5,\"SRate\":0,\"Numbers\":[\"09\",\"08\",\"02\",\"04\",\"05\",\"07\",\"06\",\"03\",\"01\",\"10\"],\"Cmd\":\"定位胆\",\"PlayValue\":\"01 02 03 06 09,,,,,,,,,\",\"LottoName\":\"马耳他幸运飞艇\",\"PlayType\":\"dingwei\",\"round_id\":\"1920258\"}",
        "game_name": "马耳他幸运飞艇",
        "game_pid": "4",
        "game_sn": "190530135616497333131",
        "id": "11885117",
        "odds": "9.750",
        "payout_amount": "2340.00",
        "result_amount": "1140.00",
        "round_no": "20190530107(1920258)",
        "rule_type": "定位胆",
        "settle_time": "2019-05-30T21:59:28+08:00",
        "user_id": "26450",
        "valid": "1"
      },
      {
        "bet_amount": "3000.00",
        "bet_time": "2019-05-30T21:45:12+08:00",
        "contents": "{\"OrderNo\":\"190530134512497195146\",\"PlatformAccountId\":\"26450\",\"RuleType\":\"\",\"Odds\":9750,\"round_no\":\"20190530105\",\"BetAmount\":\"300000\",\"BetTime\":\"2019-05-30 13:45:12\",\"EndTime\":\"2019-05-30 13:49:14\",\"WinLose\":1,\"PayoutAmount\":\"585000\",\"MRate\":2.5,\"SRate\":0,\"Numbers\":[\"05\",\"03\",\"10\",\"09\",\"04\",\"02\",\"06\",\"01\",\"07\",\"08\"],\"Cmd\":\"定位胆\",\"PlayValue\":\"04 05 06 08 09,,,,,,,,,\",\"LottoName\":\"马耳他幸运飞艇\",\"PlayType\":\"dingwei\",\"round_id\":\"1920183\"}",
        "game_name": "马耳他幸运飞艇",
        "game_pid": "4",
        "game_sn": "190530134512497195146",
        "id": "11883344",
        "odds": "9.750",
        "payout_amount": "5850.00",
        "result_amount": "2850.00",
        "round_no": "20190530105(1920183)",
        "rule_type": "定位胆",
        "settle_time": "2019-05-30T21:49:14+08:00",
        "user_id": "26450",
        "valid": "1"
      },
      {
        "bet_amount": "1200.00",
        "bet_time": "2019-05-30T21:43:23+08:00",
        "contents": "{\"OrderNo\":\"190530134323497183783\",\"PlatformAccountId\":\"26450\",\"RuleType\":\"\",\"Odds\":9750,\"round_no\":\"20190530104\",\"BetAmount\":\"120000\",\"BetTime\":\"2019-05-30 13:43:23\",\"EndTime\":\"2019-05-30 13:44:17\",\"WinLose\":0,\"PayoutAmount\":\"0\",\"MRate\":2.5,\"SRate\":0,\"Numbers\":[\"07\",\"06\",\"04\",\"08\",\"03\",\"01\",\"05\",\"10\",\"09\",\"02\"],\"Cmd\":\"定位胆\",\"PlayValue\":\"03 05 08 09 10,,,,,,,,,\",\"LottoName\":\"马耳他幸运飞艇\",\"PlayType\":\"dingwei\",\"round_id\":\"1920150\"}",
        "game_name": "马耳他幸运飞艇",
        "game_pid": "4",
        "game_sn": "190530134323497183783",
        "id": "11883105",
        "odds": "9.750",
        "payout_amount": "0.00",
        "result_amount": "-1200.00",
        "round_no": "20190530104(1920150)",
        "rule_type": "定位胆",
        "settle_time": "2019-05-30T21:44:17+08:00",
        "user_id": "26450",
        "valid": "1"
      },
      {
        "bet_amount": "1200.00",
        "bet_time": "2019-05-30T21:37:38+08:00",
        "contents": "{\"OrderNo\":\"190530133738497126287\",\"PlatformAccountId\":\"26450\",\"RuleType\":\"\",\"Odds\":9750,\"round_no\":\"20190530103\",\"BetAmount\":\"120000\",\"BetTime\":\"2019-05-30 13:37:38\",\"EndTime\":\"2019-05-30 13:39:29\",\"WinLose\":1,\"PayoutAmount\":\"234000\",\"MRate\":2.5,\"SRate\":0,\"Numbers\":[\"05\",\"08\",\"06\",\"09\",\"02\",\"01\",\"07\",\"04\",\"03\",\"10\"],\"Cmd\":\"定位胆\",\"PlayValue\":\"01 03 05 09 10,,,,,,,,,\",\"LottoName\":\"马耳他幸运飞艇\",\"PlayType\":\"dingwei\",\"round_id\":\"1920113\"}",
        "game_name": "马耳他幸运飞艇",
        "game_pid": "4",
        "game_sn": "190530133738497126287",
        "id": "11882608",
        "odds": "9.750",
        "payout_amount": "2340.00",
        "result_amount": "1140.00",
        "round_no": "20190530103(1920113)",
        "rule_type": "定位胆",
        "settle_time": "2019-05-30T21:39:29+08:00",
        "user_id": "26450",
        "valid": "1"
      },
      {
        "bet_amount": "20400.00",
        "bet_time": "2019-05-30T21:25:44+08:00",
        "contents": "{\"OrderNo\":\"190530132544497000967\",\"PlatformAccountId\":\"26450\",\"RuleType\":\"\",\"Odds\":9750,\"round_no\":\"20190530101\",\"BetAmount\":\"2040000\",\"BetTime\":\"2019-05-30 13:25:44\",\"EndTime\":\"2019-05-30 13:29:25\",\"WinLose\":0,\"PayoutAmount\":\"0\",\"MRate\":2.5,\"SRate\":0,\"Numbers\":[\"10\",\"02\",\"09\",\"08\",\"06\",\"07\",\"03\",\"01\",\"04\",\"05\"],\"Cmd\":\"定位胆\",\"PlayValue\":\"02 03 06 08 09,,,,,,,,,\",\"LottoName\":\"马耳他幸运飞艇\",\"PlayType\":\"dingwei\",\"round_id\":\"1920041\"}",
        "game_name": "马耳他幸运飞艇",
        "game_pid": "4",
        "game_sn": "190530132544497000967",
        "id": "11879945",
        "odds": "9.750",
        "payout_amount": "0.00",
        "result_amount": "-20400.00",
        "round_no": "20190530101(1920041)",
        "rule_type": "定位胆",
        "settle_time": "2019-05-30T21:29:25+08:00",
        "user_id": "26450",
        "valid": "1"
      }
    ],
    "pageNums": 50,
    "platforms": {
      "-1": "待取款",
      "0": "主钱包",
      "1": "彩票经典版",
      "2": "JR分分彩",
      "3": "SAG娱乐",
      "4": "彩票旗舰版",
      "5": "AG娱乐",
      "6": "MG",
      "7": "开元棋牌"
    },
    "sum": {
      "bet": "1498409.90",
      "payout": "1626420.90",
      "result": "128011.00"
    },
    "total": 493
  }
}