[
  {
    "link": "/#/lottery",
    "picture": "http://b07image.cnmshzh.com/static/B07P/_default/__static/_wms/_l/_banner/banner-1-173d3c2a8386c0310ba12b49f1bef1d15.jpg",
    "title": "1111"
  },
  {
    "link": "/#/lottery",
    "picture": "http://b07image.cnmshzh.com/static/B07P/_default/__static/_wms/_l/_banner/banner-1-0a1240f554e1e7d92a19e347402d16820.jpg",
    "title": "标题党"
  }
]